<svg width="170" height="28" viewBox="0 0 170 28" fill="none" xmlns="http://www.w3.org/2000/svg">
<g clip-path="url(#clip0)">
<path d="M27.3116 24.946L21.4569 19.0912L15.4913 24.9287L0.000854492 9.43829L6.5758 2.86334L10.284 6.57149L7.41714 9.43829L15.5294 17.5505L17.7453 15.3831L11.7589 9.39674L21.5815 0L31.1721 9.59063L25.2066 15.4246L27.3116 17.5297L35.4066 9.43483L32.5397 6.56802L36.2479 2.85988L42.8228 9.43483L27.3116 24.946ZM19.2583 9.47637L21.4949 11.713L23.7108 9.54562L21.4984 7.3332L19.2583 9.47637Z" fill="#5DA132"/>
<path d="M76.4903 4.88867L72.3355 21.2551H69.7595L65.9752 7.88358L62.1909 21.2551H59.6149L55.4359 4.88867H57.7799L60.9133 18.7934L64.7911 4.88867H67.1351L71.0129 18.7483L74.1705 4.88867H76.4903Z" fill="#181E2D"/>
<path d="M78.997 3.83274C79.2601 3.59384 79.6098 3.47266 80.0426 3.47266C80.4754 3.47266 80.8251 3.59384 81.0882 3.83274C81.3514 4.07164 81.4829 4.38671 81.4829 4.77449C81.4829 5.16227 81.3514 5.47388 81.0882 5.71278C80.8251 5.95168 80.4754 6.07286 80.0426 6.07286C79.6098 6.07286 79.2601 5.95168 78.997 5.71278C78.7339 5.47388 78.6023 5.15881 78.6023 4.77449C78.6023 4.39017 78.7339 4.07164 78.997 3.83274ZM81.0848 8.51034V21.2551H78.9727V8.51034H81.0848Z" fill="#181E2D"/>
<path d="M94.7817 9.72899C95.6958 10.6811 96.1528 12.0557 96.1528 13.8491V21.2551H94.0408V14.0361C94.0408 12.7689 93.7153 11.7925 93.0644 11.1105C92.4135 10.4284 91.5341 10.0891 90.4192 10.0891C89.2593 10.0891 88.3314 10.463 87.632 11.2143C86.9326 11.9656 86.5864 13.0597 86.5864 14.5001V21.2551H84.4744V8.51025H86.5864V11.5294C86.9118 10.4942 87.4866 9.69436 88.3141 9.13693C89.1416 8.57949 90.0972 8.30251 91.1809 8.30251C92.6697 8.29905 93.8677 8.77685 94.7817 9.72899Z" fill="#181E2D"/>
<path d="M103.046 15.4973V21.2552H99.0785V4.84375H105.508C107.457 4.84375 108.943 5.32848 109.964 6.29446C110.985 7.26045 111.494 8.56575 111.494 10.2069C111.494 11.2283 111.266 12.1389 110.809 12.9352C110.352 13.7315 109.673 14.3582 108.776 14.8152C107.88 15.2723 106.789 15.5008 105.505 15.5008H103.046V15.4973ZM107.457 10.2034C107.457 8.7631 106.661 8.04294 105.065 8.04294H103.046V12.3154H105.065C106.661 12.3154 107.457 11.6126 107.457 10.2034Z" fill="#181E2D"/>
<path d="M117.415 4.0752V21.2518H113.447V4.0752H117.415Z" fill="#181E2D"/>
<path d="M127.629 8.81169C128.342 9.2618 128.868 9.87116 129.208 10.6467V8.30273H133.155V21.2553H129.208V18.9113C128.868 19.6868 128.342 20.2962 127.629 20.7463C126.916 21.1964 126.067 21.418 125.074 21.418C124.007 21.418 123.052 21.1514 122.207 20.6182C121.362 20.085 120.697 19.3164 120.209 18.3088C119.721 17.3013 119.479 16.1276 119.479 14.7807C119.479 13.42 119.721 12.2394 120.209 11.2422C120.697 10.2451 121.362 9.47992 122.207 8.94326C123.052 8.41006 124.007 8.14347 125.074 8.14347C126.064 8.13654 126.916 8.36159 127.629 8.81169ZM124.298 12.4541C123.779 13.0115 123.519 13.7836 123.519 14.7738C123.519 15.764 123.779 16.5396 124.298 17.097C124.817 17.6545 125.503 17.9314 126.351 17.9314C127.186 17.9314 127.871 17.6441 128.404 17.0728C128.938 16.5015 129.204 15.7329 129.204 14.7738C129.204 13.7974 128.938 13.0288 128.404 12.4644C127.871 11.9001 127.186 11.6162 126.351 11.6162C125.499 11.6196 124.814 11.9001 124.298 12.4541Z" fill="#181E2D"/>
<path d="M138.888 8.29932L141.997 16.2384L144.899 8.29932H149.286L141.208 27.4286H136.845L139.885 20.7671L134.453 8.30278H138.888V8.29932Z" fill="#181E2D"/>
<path d="M158.305 6.76189H155.483L154.947 8.24376H154.053L156.428 1.9458H157.367L159.731 8.24376H158.838L158.305 6.76189ZM158.066 6.11444L156.892 2.8737L155.719 6.11444H158.066Z" fill="#181E2D"/>
<path d="M161.397 5.66092V8.24381H160.569V1.82812H162.609C163.343 1.82812 163.893 2.00124 164.257 2.34055C164.62 2.68332 164.804 3.15073 164.804 3.74625C164.804 4.34523 164.617 4.81611 164.239 5.15195C163.862 5.4878 163.322 5.65745 162.612 5.65745H161.397V5.66092ZM163.623 4.64992C163.845 4.43872 163.955 4.13749 163.955 3.74971C163.955 3.34808 163.845 3.0434 163.623 2.83566C163.401 2.62792 163.038 2.52059 162.536 2.52059H161.397V4.96845H162.536C163.038 4.96845 163.401 4.86112 163.623 4.64992Z" fill="#181E2D"/>
<path d="M166.594 5.66092V8.24381H165.766V1.82812H167.806C168.54 1.82812 169.09 2.00124 169.454 2.34055C169.817 2.68332 170.001 3.15073 170.001 3.74625C170.001 4.34523 169.814 4.81611 169.436 5.15195C169.059 5.4878 168.519 5.65745 167.809 5.65745H166.594V5.66092ZM168.82 4.64992C169.042 4.43872 169.152 4.13749 169.152 3.74971C169.152 3.34808 169.042 3.0434 168.82 2.83566C168.598 2.62792 168.235 2.52059 167.733 2.52059H166.594V4.96845H167.733C168.235 4.96845 168.598 4.86112 168.82 4.64992Z" fill="#181E2D"/>
</g>
<defs>
<clipPath id="clip0">
<rect width="170" height="27.4285" fill="white"/>
</clipPath>
</defs>
</svg>
