
<svg width="1440" height="296" viewBox="0 0 1440 296" fill="none" xmlns="http://www.w3.org/2000/svg">
<rect width="1440" height="296" fill="#27221F"/>
<g clip-path="url(#clip0)">
<path opacity="0.15" d="M716.835 287.663H678.22V268.545H681.385V265.724H698.266V268.231H706.073V262.433H698.266V264.941H681.385V262.747H673.578V264.941H659.862V258.046H669.569V245.823H672.945V240.181H665.138V245.823H668.514V257.105H631.376V270.739H628V276.537H635.807V270.739H632.431V258.046H658.807V265.724H673.578V268.545H676.954V288.446H715.569V307.094H700.376V297.692H655.642V336.241H652.266V342.196H660.073V336.241H656.908V298.632H699.321V307.878H715.569V319.004H712.193V324.802H715.569V325.272H706.284V319.16H709.661V313.362H701.853V319.16H705.229V326.055H715.569V334.047V334.361H712.193V336.711H683.495V369.149H696.578V379.178H692.991V384.976H700.798V379.178H697.844V368.209H684.761V351.755H699.532V347.21H702.697V341.412H694.89V347.21H698.266V350.971H684.761V337.651H712.193V340.159H715.569V352.068H712.615V349.561H704.807V355.202H712.615V352.852H716.835V340.159H720V334.361H716.835V334.047V324.802H720V319.004H716.835V287.663Z" fill="white"/>
<path opacity="0.15" d="M526.227 291.14H529.378V314.704H504.17V268.512H507.321V266.015H514.253V268.512H522.026V262.738H514.253V265.235H507.321V262.738H499.548V265.235H468.458V244.324H453.963V236.833H456.904V231.059H449.341V236.833H452.703V251.346H402.916V271.009H427.914V285.21H408.798V312.831H357.33V310.335H349.558V316.109H357.33V313.612H379.178V364.329H375.817V366.826H332.122V343.886H348.718V345.915H356.28V340.297H348.718V342.95H331.072V354.966H306.073V352.469H302.712V345.447H306.283V339.673H298.721V345.447H301.662V352.469H298.301V358.243H301.662V374.005H270.361V382.9H267V388.674H274.773V382.9H271.411V374.941H302.712V358.243H306.073V355.746H331.072V367.763H352.289V392.107H348.928V397.881H356.7V392.107H353.339V367.763H375.817V370.26H379.178V393.512H375.817V396.009H369.725V393.668H362.162V399.286H369.725V396.945H375.817V399.286H383.799V396.945H389.891V412.082H386.53V417.856H394.303V412.082H390.942V396.009H383.799V393.512H380.438V370.26H383.799V364.329H380.438V345.915H400.395V361.208H397.034V366.982H404.806V361.208H401.655V345.135H380.438V313.612H410.058V286.146H427.914V340.765H424.553V346.539H432.326V340.765H428.965V270.073H403.966V252.282H453.963V245.26H467.197V266.015H499.548V268.512H502.909V315.64H529.378V369.791H504.17V357.931H507.321V352.157H499.548V357.931H502.909V394.604H492.826V390.547H462.576V372.444H416.991V369.947H409.008V375.721H416.991V373.381H461.315V391.483H491.566V410.209H527.698V420.977H524.337V426.751H532.109V420.977H528.958V409.273H492.826V395.384H504.17V370.728H530.639V291.14H534V285.21H526.227V291.14Z" fill="white"/>
<path opacity="0.15" d="M852.207 266.152H812.613V263.64H804.609V266.152H800.608V245.271H807.558V247.783H815.35V241.817H807.558V244.329H783.548V236.007H762.487V223.918H746.902V221.406H739.109V227.215H746.902V224.86H761.223V247.94H736.793V245.428H729V251.237H736.793V248.725H762.487V236.792H782.285V245.271H799.344V267.094H804.609V269.449H807.979V294.099H827.566V304.775H814.719V314.039H811.559V319.691H819.141V314.039H815.772V305.718H828.619V283.737H831.989V277.771H824.196V283.737H827.566V293.314H809.243V269.449H812.613V267.094H852.207V269.449H860V263.64H852.207V266.152Z" fill="white"/>
<path opacity="0.15" d="M619.665 288.888H594.023V220.694H563.378V201.254H606.322V183.539H609.033V177.896H601.528V183.539H605.072V200.314H562.336V242.641H559V248.442H566.713V242.641H563.378V221.477H592.98V258.945H571.925V306.916H568.59V312.717H576.303V306.916H572.967V259.886H592.98V289.829H618.622V324.631H615.287V330.588H623V324.631H619.665V288.888Z" fill="white"/>
<path opacity="0.15" d="M700.579 200.801H708.789V179.679H729.842V139.938H733V133.992H725.211V139.938H728.579V160.278H705.842V87.9926H709.21V82.2035H701.421V87.9926H704.579V161.216H728.579V178.74H707.526V200.019H700.579V197.516H693V203.305H700.579V200.801Z" fill="white"/>
<path opacity="0.15" d="M104 37.8855V32.2514H96.4668V34.4424H60.4749V38.8246H46.664V28.8083H7.74245V26.3042H0V32.0949H7.74245V29.5908H45.4084V39.6071H60.4749V47.5888H44.3622V45.0847H36.6197V50.8754H44.3622V48.5278H61.7304V35.3815H96.4668V37.8855H104Z" fill="white"/>
<path opacity="0.15" d="M104 62.0256V56.1406H96.5366V58.6855H90.3171V75.7044H87V81.5894H94.878V75.7044H91.561V59.4808H96.5366V62.0256H104Z" fill="white"/>
</g>
<defs>
<clipPath id="clip0">
<rect width="1440" height="296" fill="white"/>
</clipPath>
</defs>
</svg>
