
<svg width="1440" height="300" viewBox="0 0 1440 300" fill="none" xmlns="http://www.w3.org/2000/svg">
<rect width="1440" height="300" fill="#1E242B"/>
<path fill-rule="evenodd" clip-rule="evenodd" d="M-84.8229 150.041C11.3241 91.9409 84.5273 27.3261 125.594 -36.2715L126.434 -35.729C85.2542 28.044 11.9118 92.7541 -84.3057 150.897C-180.53 209.044 -299.664 260.641 -432.463 298.174C-473.92 309.891 -514.958 319.742 -555.22 327.776L-555.416 326.796C-515.18 318.767 -474.167 308.921 -432.735 297.212C-300.013 259.701 -180.963 208.137 -84.8229 150.041ZM698.594 -36.2715C657.527 27.3261 584.324 91.9409 488.177 150.041C392.037 208.137 272.987 259.701 140.265 297.212C98.8332 308.921 57.82 318.767 17.584 326.796L17.7797 327.776C58.0416 319.742 99.0802 309.891 140.537 298.174C273.336 260.641 392.47 209.044 488.694 150.897C584.912 92.7541 658.254 28.044 699.434 -35.729L698.594 -36.2715ZM1001.58 -36.2715C960.513 27.3261 887.31 91.9409 791.163 150.041C695.023 208.137 575.973 259.701 443.25 297.212C401.819 308.921 360.806 318.767 320.57 326.796L320.766 327.776C361.027 319.742 402.066 309.891 443.522 298.174C576.322 260.641 695.456 209.044 791.68 150.897C887.898 92.7541 961.24 28.044 1002.42 -35.729L1001.58 -36.2715ZM375.594 -36.2715C334.527 27.3261 261.324 91.9409 165.177 150.041C69.0371 208.137 -50.0126 259.701 -182.735 297.212C-224.167 308.921 -265.18 318.767 -305.416 326.796L-305.22 327.776C-264.958 319.742 -223.92 309.891 -182.463 298.174C-49.664 260.641 69.4697 209.044 165.694 150.897C261.912 92.7541 335.254 28.044 376.434 -35.729L375.594 -36.2715Z" fill="url(#paint0_linear)"/>
<defs>
<linearGradient id="paint0_linear" x1="538.5" y1="-36.0005" x2="-13" y2="304.999" gradientUnits="userSpaceOnUse">
<stop stop-color="#5E5E5E" stop-opacity="0.26"/>
<stop offset="1" stop-color="#737373"/>
</linearGradient>
</defs>
</svg>
