<svg width="200" height="35" viewBox="0 0 200 35" fill="none" xmlns="http://www.w3.org/2000/svg">
<path fill-rule="evenodd" clip-rule="evenodd" d="M29.3925 20.5021C28.7941 20.8803 28.0895 20.9272 27.554 20.6251C26.8736 20.241 26.4996 19.3414 26.4996 18.0904V14.3473C26.4996 12.5397 25.7849 11.2536 24.59 10.9063C22.5649 10.3163 21.0418 12.7941 20.4695 13.7247L16.8979 19.5155V12.4377C16.8577 10.8092 16.3289 9.83515 15.3247 9.54142C14.6603 9.34728 13.6661 9.4251 12.7004 10.9029L4.69874 23.7515C3.62751 21.7178 3.06908 19.4533 3.07197 17.1548C3.07197 9.41506 9.27448 3.11883 16.8979 3.11883C24.5213 3.11883 30.723 9.41506 30.723 17.1548C30.723 17.1682 30.7264 17.1799 30.7272 17.1925C30.7272 17.2059 30.7247 17.2176 30.7255 17.231C30.7975 18.7297 30.3121 19.9222 29.3925 20.5029V20.5021ZM33.795 17.1556V17.1548V17.1163L33.7941 17.0778C33.7515 7.65188 26.1891 0 16.8971 0C7.58075 0 0 7.6954 0 17.1548C0 26.6134 7.58075 34.3096 16.8979 34.3096C21.1732 34.3096 25.2536 32.6845 28.3858 29.7347C29.0084 29.149 29.0452 28.1623 28.4678 27.5314C28.3319 27.3815 28.1674 27.2603 27.9841 27.1748C27.8007 27.0893 27.6022 27.0412 27.4 27.0334C27.1979 27.0256 26.9962 27.0582 26.8068 27.1294C26.6174 27.2005 26.4441 27.3087 26.2971 27.4477C23.7582 29.8519 20.3944 31.1914 16.8979 31.1908C12.8159 31.1908 9.1431 29.3841 6.61004 26.5188L13.8259 14.9322V20.2736C13.8259 22.8393 14.8209 23.6686 15.6552 23.9113C16.4904 24.154 17.7665 23.9883 19.1063 21.8126L23.0753 15.3782C23.2025 15.1707 23.3197 14.9916 23.4268 14.8368V18.0904C23.4268 20.4887 24.3874 22.4067 26.0619 23.3515C27.5715 24.2033 29.4695 24.1264 31.0159 23.1506C32.8904 21.9665 33.9004 19.7849 33.795 17.1556ZM57.3205 11.2946C57.7264 11.5414 58.0778 12.0904 58.0778 12.5849C58.0778 13.3808 57.4017 14.0393 56.6444 14.0393C56.4552 14.0393 56.2661 13.9849 56.1038 13.9297C55.2109 13.2711 54.0753 12.8318 52.8854 12.8318C50.0736 12.8318 48.1264 15.1372 48.1264 17.9916C48.1264 20.8469 50.0736 23.1247 52.8854 23.1247C54.2912 23.1247 55.5356 22.5481 56.482 21.6703C56.7265 21.4945 57.0194 21.3987 57.3205 21.3958C58.0778 21.3958 58.6728 21.9992 58.6728 22.7682C58.6728 23.2619 58.3749 23.7013 57.9967 23.9481C56.6443 25.1013 54.8059 25.8695 52.913 25.8695C48.5866 25.8695 45.0703 22.3013 45.0703 17.9096C45.0703 13.518 48.5858 9.94979 52.913 9.94979C54.5356 9.94979 56.0761 10.4435 57.3205 11.2946ZM65.2318 14.6159C68.1791 14.6159 70.6669 17.1138 70.6669 20.1874C70.6669 23.2619 68.1791 25.8695 65.2318 25.8695C62.149 25.8695 59.5799 23.2619 59.5799 20.1874C59.5799 17.1138 62.149 14.6159 65.2318 14.6159ZM65.2042 23.1247C66.5029 23.1247 67.6109 21.8895 67.6109 20.2151C67.6109 18.5414 66.5029 17.4979 65.2042 17.4979C63.7983 17.4979 62.6351 18.5138 62.6351 20.2151C62.6351 21.8895 63.7983 23.1247 65.2042 23.1247ZM72.5205 24.1674V16.318C72.5205 15.4669 73.1966 14.7531 74.0351 14.7531C74.8736 14.7531 75.5766 15.4669 75.5766 16.318V24.1674C75.5766 25.0184 74.8736 25.7322 74.0351 25.7322C73.1966 25.7322 72.5205 25.0184 72.5205 24.1674ZM72.2778 11.7891C72.2778 10.7732 73.0611 9.94979 74.0351 9.94979C75.0351 9.94979 75.8469 10.7732 75.8469 11.7891C75.8469 12.7766 75.0351 13.5732 74.0351 13.5732C73.0611 13.5732 72.2778 12.7766 72.2778 11.7891ZM81.4326 19.913V24.1674C81.4326 25.0184 80.7297 25.7322 79.8904 25.7322C79.0527 25.7322 78.3757 25.0184 78.3757 24.1674V15.9607C78.3757 15.3021 78.9172 14.7531 79.5665 14.7531C80.2151 14.7531 80.7297 15.3021 80.7297 15.9607C81.9732 14.8084 83.0544 14.6159 84.082 14.6159C87.1381 14.6159 88.4904 16.9213 88.4904 19.5289V24.1674C88.4904 25.0184 87.7874 25.7322 86.949 25.7322C86.1105 25.7322 85.4343 25.0184 85.4343 24.1674V19.913C85.4343 18.5682 85.272 17.4427 83.3523 17.4427C82 17.4427 81.4318 18.5682 81.4318 19.913H81.4326ZM98.4293 21.5331C98.0778 21.5331 97.8351 21.3682 97.6452 21.1481L94.0753 17.2787V24.1674C94.0753 25.0184 93.3724 25.7322 92.5339 25.7322C91.6954 25.7322 91.0192 25.0184 91.0192 24.1674V10.5272C91.063 10.4123 91.1411 10.3137 91.2429 10.2448C91.3447 10.1759 91.4653 10.1401 91.5883 10.1423C91.8577 10.1423 92.0736 10.3623 92.2368 10.5272L97.9155 16.9222C98.0778 17.1146 98.2937 17.2243 98.4025 17.2243C98.5105 17.2243 98.7264 17.1146 98.8887 16.923L104.568 10.5272C104.731 10.3623 104.946 10.1423 105.217 10.1423C105.487 10.1423 105.704 10.3071 105.785 10.5272V24.1674C105.785 25.0184 105.109 25.7322 104.27 25.7322C103.432 25.7322 102.729 25.0184 102.729 24.1674V17.2787L99.1598 21.1481C98.9699 21.3682 98.7264 21.5331 98.4293 21.5331ZM113.128 23.1247C114.507 23.1247 115.669 21.8895 115.669 20.2151C115.669 18.5414 114.48 17.4427 113.128 17.4427C111.776 17.4427 110.694 18.5682 110.694 20.2151C110.694 21.8343 111.776 23.1247 113.128 23.1247ZM116.373 24.5247L116.318 24.1674C115.724 25.3473 113.83 25.8695 112.613 25.8695C109.746 25.8695 107.638 23.2619 107.638 20.1874C107.638 17.1138 109.801 14.6159 112.776 14.6159C113.29 14.6159 114.993 14.7531 116.318 16.318L116.372 15.9607C116.372 15.3021 116.886 14.7531 117.536 14.7531C118.184 14.7531 118.725 15.3021 118.725 15.9607V24.5247C118.725 25.1833 118.184 25.7322 117.535 25.7322C116.886 25.7322 116.372 25.1833 116.372 24.5247H116.373ZM127.204 17.4427H126.88C124.96 17.5531 124.582 18.651 124.582 19.913V24.1674C124.582 25.0184 123.879 25.7322 123.04 25.7322C122.202 25.7322 121.526 25.0184 121.526 24.1674V15.9607C121.526 15.3021 122.066 14.7531 122.715 14.7531C123.365 14.7531 123.879 15.3021 123.879 15.9607C125.014 14.8904 125.934 14.6711 126.88 14.6159H127.177C127.908 14.6159 128.583 15.2469 128.583 16.0435C128.583 16.7841 127.935 17.4427 127.204 17.4427ZM138.982 23.4544C139.118 23.6736 139.199 23.9205 139.199 24.195C139.199 24.9908 138.469 25.7322 137.685 25.7322C137.144 25.7322 136.684 25.3205 136.332 24.8812L132.818 20.7916V24.1674C132.818 25.0184 132.114 25.7322 131.275 25.7322C130.437 25.7322 129.761 25.0184 129.761 24.1674V11.7071C129.761 10.8552 130.437 10.1423 131.275 10.1423C132.114 10.1423 132.817 10.8552 132.817 11.7071V19.4745L136.332 15.5766C136.684 15.1649 137.116 14.7531 137.658 14.7531C138.415 14.7531 139.118 15.4669 139.118 16.2628C139.118 16.5096 139.064 16.7565 138.928 16.9766L136.143 20.0226L138.982 23.4536V23.4544ZM144.974 17.4979C144.136 17.4979 142.783 17.9372 142.783 19.2268H147.191C147.191 17.9096 145.785 17.4979 144.973 17.4979H144.974ZM148.976 21.1757H142.783C142.783 23.0151 144.541 23.2895 145.325 23.2895C145.894 23.2895 146.705 23.1799 147.326 22.9046C147.515 22.7682 147.84 22.6577 148.11 22.6577C148.787 22.6577 149.354 23.2351 149.354 23.9213C149.354 24.3874 149.057 24.7992 148.679 25.0184C147.732 25.7046 146.515 25.8695 145.352 25.8695C142.269 25.8695 139.7 24.1958 139.7 20.3247C139.7 17.2787 141.269 14.6159 144.92 14.6159C147.867 14.6159 150.111 16.5372 150.166 19.9682C150.166 20.6268 149.625 21.1757 148.976 21.1757ZM157.482 25.8695H156.644C154.317 25.8695 152.966 24.8536 152.966 21.2033V17.4427H152.182C151.451 17.4427 150.803 16.7841 150.803 16.0435C150.803 15.2469 151.451 14.6159 152.182 14.6159H152.966V11.7063C152.966 10.8552 153.642 10.1414 154.48 10.1414C155.318 10.1414 156.022 10.8552 156.022 11.7063V14.6159H157.292C158.023 14.6159 158.672 15.2469 158.672 16.0435C158.672 16.7841 158.023 17.4427 157.292 17.4427H156.022V20.5992C156.022 22.6854 156.13 23.1247 157.049 23.1247H157.482C158.212 23.1247 158.833 23.7289 158.833 24.4971C158.833 25.2385 158.212 25.8695 157.482 25.8695ZM172.289 11.2946C172.694 11.5414 173.046 12.0904 173.046 12.5849C173.046 13.3808 172.37 14.0393 171.613 14.0393C171.423 14.0393 171.233 13.9849 171.072 13.9297C170.179 13.2711 169.044 12.8318 167.854 12.8318C165.042 12.8318 163.094 15.1372 163.094 17.9916C163.094 20.8469 165.041 23.1247 167.854 23.1247C169.259 23.1247 170.504 22.5481 171.45 21.6703C171.695 21.4945 171.988 21.3987 172.289 21.3958C173.046 21.3958 173.64 21.9992 173.64 22.7682C173.64 23.2619 173.343 23.7013 172.965 23.9481C171.613 25.1013 169.773 25.8695 167.88 25.8695C163.554 25.8695 160.038 22.3013 160.038 17.9096C160.038 13.518 163.553 9.94979 167.88 9.94979C169.504 9.94979 171.044 10.4435 172.289 11.2946ZM180.038 23.1247C181.417 23.1247 182.579 21.8895 182.579 20.2151C182.579 18.5414 181.389 17.4427 180.037 17.4427C178.685 17.4427 177.603 18.5682 177.603 20.2151C177.603 21.8343 178.685 23.1247 180.037 23.1247H180.038ZM183.282 24.5247L183.228 24.1674C182.633 25.3473 180.741 25.8695 179.523 25.8695C176.657 25.8695 174.547 23.2619 174.547 20.1874C174.547 17.1138 176.711 14.6159 179.685 14.6159C180.199 14.6159 181.903 14.7531 183.228 16.318L183.282 15.9607C183.282 15.3021 183.796 14.7531 184.445 14.7531C185.094 14.7531 185.635 15.3021 185.635 15.9607V24.5247C185.635 25.1833 185.094 25.7322 184.445 25.7322C183.796 25.7322 183.282 25.1833 183.282 24.5247ZM194.033 23.1247C195.385 23.1247 196.466 21.8343 196.466 20.2151C196.466 18.5682 195.385 17.4427 194.033 17.4427C192.68 17.4427 191.49 18.5406 191.49 20.2151C191.49 21.8895 192.654 23.1247 194.033 23.1247ZM191.49 24.964V28.8611C191.49 29.7121 190.787 30.4259 189.949 30.4259C189.111 30.4259 188.434 29.7121 188.434 28.8611V15.9607C188.434 15.3021 188.976 14.7531 189.625 14.7531C190.274 14.7531 190.788 15.3021 190.788 16.0703C191.923 14.8904 193.33 14.6159 194.384 14.6159C197.359 14.6159 199.522 17.1138 199.522 20.1874C199.522 23.2619 197.413 25.8695 194.546 25.8695C193.654 25.8695 192.329 25.595 191.49 24.964Z" fill="#17181B"/>
</svg>
